{
  "items": [
    {
      "id": "25z14Qw0e8uN0dIaWVe2Mk",
      "tracks": [
        { "name": "yeap1", "popularity": 10 },
        { "name": "yeap2", "popularity": 10 }
      ]
    },
    {
      "id": "05fG473iIaoy82BF1aGhL8",
      "tracks": [
        { "name": "yeap1", "popularity": 10 },
        { "name": "yeap2", "popularity": 10 }
      ]
    },
    {
      "id": "5ZNxiPcbKgaNcBrERMpqeu",
      "tracks": [
        { "name": "yeap1", "popularity": 10 },
        { "name": "yeap2", "popularity": 10 }
      ]
    },
    {
      "id": "1Qp56T7n950O3EGMsSl81D",
      "tracks": [
        { "name": "yeap1", "popularity": 71 },
        { "name": "yeap2", "popularity": 71 }
      ]
    },
    {
      "id": "0Up8AZmXDecXiMirZhRLmw",
      "tracks": [
        { "name": "yeap1", "popularity": 51 },
        { "name": "yeap2", "popularity": 51 }
      ]
    },
    {
      "id": "0yNSzH5nZmHzeE2xn6Xshb",
      "tracks": [
        { "name": "yeap1", "popularity": 75 },
        { "name": "yeap2", "popularity": 75 }
      ]
    },
    {
      "id": "6wWVKhxIU2cEi0K81v7HvP",
      "tracks": [
        { "name": "yeap1", "popularity": 85 },
        { "name": "yeap2", "popularity": 85 }
      ]
    },
    {
      "id": "5lwmRuXgjX8xIwlnauTZIP",
      "tracks": [
        { "name": "yeap1", "popularity": 86 },
        { "name": "yeap2", "popularity": 86 }
      ]
    },
    {
      "id": "1dfeR4HaWDbWqFHLkxsg1d",
      "tracks": [
        { "name": "yeap1", "popularity": 92 },
        { "name": "yeap2", "popularity": 92 }
      ]
    },
    {
      "id": "1r4hJ1h58CWwUQe3MxPuau",
      "tracks": [
        { "name": "yeap1", "popularity": 93 },
        { "name": "yeap2", "popularity": 93 }
      ]
    },
    {
      "id": "4yscD4NQlCKXEpUvBV3nj8",
      "tracks": [
        { "name": "yeap1", "popularity": 46 },
        { "name": "yeap2", "popularity": 46 }
      ]
    },
    {
      "id": "0SfsnGyD8FpIN4U4WCkBZ5",
      "tracks": [
        { "name": "yeap1", "popularity": 82 },
        { "name": "yeap2", "popularity": 82 }
      ]
    },
    {
      "id": "0h1zs4CTlU9D2QtgPxptUD",
      "tracks": [
        { "name": "yeap1", "popularity": 79 },
        { "name": "yeap2", "popularity": 79 }
      ]
    },
    {
      "id": "1i8SpTcr7yvPOmcqrbnVXY",
      "tracks": [
        { "name": "yeap1", "popularity": 97 },
        { "name": "yeap2", "popularity": 97 }
      ]
    },
    {
      "id": "3PfJE6ebCbCHeuqO4BfNeA",
      "tracks": [
        { "name": "yeap1", "popularity": 68 },
        { "name": "yeap2", "popularity": 68 }
      ]
    },
    {
      "id": "3WrFJ7ztbogyGnTHbHJFl2",
      "tracks": [
        { "name": "yeap1", "popularity": 90 },
        { "name": "yeap2", "popularity": 90 }
      ]
    },
    {
      "id": "003f4bk13c6Q3gAUXv7dGJ",
      "tracks": [
        { "name": "yeap1", "popularity": 69 },
        { "name": "yeap2", "popularity": 69 }
      ]
    },
    {
      "id": "4rYCMf7ApPRVG3yjCbxJ8m",
      "tracks": [
        { "name": "yeap1", "popularity": 28 },
        { "name": "yeap2", "popularity": 28 }
      ]
    },
    {
      "id": "02OR1V0L1ODy7dDlBLTOvx",
      "tracks": [
        { "name": "yeap1", "popularity": 45 },
        { "name": "yeap2", "popularity": 45 }
      ]
    },
    {
      "id": "4NqS7DbPFYwZmniGHCPMpm",
      "tracks": [
        { "name": "yeap1", "popularity": 73 },
        { "name": "yeap2", "popularity": 73 }
      ]
    }
  ],
  "total": 50,
  "limit": 20,
  "offset": 0,
  "href": "https://api.spotify.com/v1/me/top/artists",
  "previous": null,
  "next": "https://api.spotify.com/v1/me/top/artists?limit=20&offset=20"
}
